0,0,0
0,1,1
1,1,2
1,0,3
2,0,4
3,0,5
3,1,6
2,1,7
2,2,8
3,2,9
3,3,10
2,3,11
1,3,12
1,2,13
0,2,14
0,3,15
0,4,16
1,4,17
1,5,18
0,5,19
0,6,20
0,7,21
1,7,22
1,6,23
2,6,24
2,7,25
3,7,26
3,6,27
3,5,28
2,5,29
2,4,30
3,4,31
4,4,32
5,4,33
5,5,34
4,5,35
4,6,36
4,7,37
5,7,38
5,6,39
6,6,40
6,7,41
7,7,42
7,6,43
7,5,44
6,5,45
6,4,46
7,4,47
7,3,48
7,2,49
6,2,50
6,3,51
5,3,52
4,3,53
4,2,54
5,2,55
5,1,56
4,1,57
4,0,58
5,0,59
6,0,60
6,1,61
7,1,62
7,0,63
8,0,64
9,0,65
9,1,66
8,1,67
8,2,68
8,3,69
9,3,70
9,2,71
10,2,72
10,3,73
11,3,74
11,2,75
11,1,76
10,1,77
10,0,78
11,0,79
12,0,80
12,1,81
13,1,82
13,0,83
14,0,84
15,0,85
15,1,86
14,1,87
14,2,88
15,2,89
15,3,90
14,3,91
13,3,92
13,2,93
12,2,94
12,3,95
12,4,96
12,5,97
13,5,98
13,4,99
14,4,100
15,4,101
15,5,102
14,5,103
14,6,104
15,6,105
15,7,106
14,7,107
13,7,108
13,6,109
12,6,110
12,7,111
11,7,112
10,7,113
10,6,114
11,6,115
11,5,116
11,4,117
10,4,118
10,5,119
9,5,120
9,4,121
8,4,122
8,5,123
8,6,124
9,6,125
9,7,126
8,7,127
8,8,128
9,8,129
9,9,130
8,9,131
8,10,132
8,11,133
9,11,134
9,10,135
10,10,136
10,11,137
11,11,138
11,10,139
11,9,140
10,9,141
10,8,142
11,8,143
12,8,144
12,9,145
13,9,146
13,8,147
14,8,148
15,8,149
15,9,150
14,9,151
14,10,152
15,10,153
15,11,154
14,11,155
13,11,156
13,10,157
12,10,158
12,11,159
12,12,160
12,13,161
13,13,162
13,12,163
14,12,164
15,12,165
15,13,166
14,13,167
14,14,168
15,14,169
15,15,170
14,15,171
13,15,172
13,14,173
12,14,174
12,15,175
11,15,176
10,15,177
10,14,178
11,14,179
11,13,180
11,12,181
10,12,182
10,13,183
9,13,184
9,12,185
8,12,186
8,13,187
8,14,188
9,14,189
9,15,190
8,15,191
7,15,192
7,14,193
6,14,194
6,15,195
5,15,196
4,15,197
4,14,198
5,14,199
5,13,200
4,13,201
4,12,202
5,12,203
6,12,204
6,13,205
7,13,206
7,12,207
7,11,208
6,11,209
6,10,210
7,10,211
7,9,212
7,8,213
6,8,214
6,9,215
5,9,216
5,8,217
4,8,218
4,9,219
4,10,220
5,10,221
5,11,222
4,11,223
3,11,224
2,11,225
2,10,226
3,10,227
3,9,228
3,8,229
2,8,230
2,9,231
1,9,232
1,8,233
0,8,234
0,9,235
0,10,236
1,10,237
1,11,238
0,11,239
0,12,240
0,13,241
1,13,242
1,12,243
2,12,244
3,12,245
3,13,246
2,13,247
2,14,248
3,14,249
3,15,250
2,15,251
1,15,252
1,14,253
0,14,254
0,15,255
0,16,256
1,16,257
1,17,258
0,17,259
0,18,260
0,19,261
1,19,262
1,18,263
2,18,264
2,19,265
3,19,266
3,18,267
3,17,268
2,17,269
2,16,270
3,16,271
4,16,272
4,17,273
5,17,274
5,16,275
6,16,276
7,16,277
7,17,278
6,17,279
6,18,280
7,18,281
7,19,282
6,19,283
5,19,284
5,18,285
4,18,286
4,19,287
4,20,288
4,21,289
5,21,290
5,20,291
6,20,292
7,20,293
7,21,294
6,21,295
6,22,296
7,22,297
7,23,298
6,23,299
5,23,300
5,22,301
4,22,302
4,23,303
3,23,304
2,23,305
2,22,306
3,22,307
3,21,308
3,20,309
2,20,310
2,21,311
1,21,312
1,20,313
0,20,314
0,21,315
0,22,316
1,22,317
1,23,318
0,23,319
0,24,320
0,25,321
1,25,322
1,24,323
2,24,324
3,24,325
3,25,326
2,25,327
2,26,328
3,26,329
3,27,330
2,27,331
1,27,332
1,26,333
0,26,334
0,27,335
0,28,336
1,28,337
1,29,338
0,29,339
0,30,340
0,31,341
1,31,342
1,30,343
2,30,344
2,31,345
3,31,346
3,30,347
3,29,348
2,29,349
2,28,350
3,28,351
4,28,352
5,28,353
5,29,354
4,29,355
4,30,356
4,31,357
5,31,358
5,30,359
6,30,360
6,31,361
7,31,362
7,30,363
7,29,364
6,29,365
6,28,366
7,28,367
7,27,368
7,26,369
6,26,370
6,27,371
5,27,372
4,27,373
4,26,374
5,26,375
5,25,376
4,25,377
4,24,378
5,24,379
6,24,380
6,25,381
7,25,382
7,24,383
8,24,384
8,25,385
9,25,386
9,24,387
10,24,388
11,24,389
11,25,390
10,25,391
10,26,392
11,26,393
11,27,394
10,27,395
9,27,396
9,26,397
8,26,398
8,27,399
8,28,400
9,28,401
9,29,402
8,29,403
8,30,404
8,31,405
9,31,406
9,30,407
10,30,408
10,31,409
11,31,410
11,30,411
11,29,412
10,29,413
10,28,414
11,28,415
12,28,416
13,28,417
13,29,418
12,29,419
12,30,420
12,31,421
13,31,422
13,30,423
14,30,424
14,31,425
15,31,426
15,30,427
15,29,428
14,29,429
14,28,430
15,28,431
15,27,432
15,26,433
14,26,434
14,27,435
13,27,436
12,27,437
12,26,438
13,26,439
13,25,440
12,25,441
12,24,442
13,24,443
14,24,444
14,25,445
15,25,446
15,24,447
15,23,448
14,23,449
14,22,450
15,22,451
15,21,452
15,20,453
14,20,454
14,21,455
13,21,456
13,20,457
12,20,458
12,21,459
12,22,460
13,22,461
13,23,462
12,23,463
11,23,464
11,22,465
10,22,466
10,23,467
9,23,468
8,23,469
8,22,470
9,22,471
9,21,472
8,21,473
8,20,474
9,20,475
10,20,476
10,21,477
11,21,478
11,20,479
11,19,480
11,18,481
10,18,482
10,19,483
9,19,484
8,19,485
8,18,486
9,18,487
9,17,488
8,17,489
8,16,490
9,16,491
10,16,492
10,17,493
11,17,494
11,16,495
12,16,496
13,16,497
13,17,498
12,17,499
12,18,500
12,19,501
13,19,502
13,18,503
14,18,504
14,19,505
15,19,506
15,18,507
15,17,508
14,17,509
14,16,510
15,16,511
16,16,512
17,16,513
17,17,514
16,17,515
16,18,516
16,19,517
17,19,518
17,18,519
18,18,520
18,19,521
19,19,522
19,18,523
19,17,524
18,17,525
18,16,526
19,16,527
20,16,528
20,17,529
21,17,530
21,16,531
22,16,532
23,16,533
23,17,534
22,17,535
22,18,536
23,18,537
23,19,538
22,19,539
21,19,540
21,18,541
20,18,542
20,19,543
20,20,544
20,21,545
21,21,546
21,20,547
22,20,548
23,20,549
23,21,550
22,21,551
22,22,552
23,22,553
23,23,554
22,23,555
21,23,556
21,22,557
20,22,558
20,23,559
19,23,560
18,23,561
18,22,562
19,22,563
19,21,564
19,20,565
18,20,566
18,21,567
17,21,568
17,20,569
16,20,570
16,21,571
16,22,572
17,22,573
17,23,574
16,23,575
16,24,576
16,25,577
17,25,578
17,24,579
18,24,580
19,24,581
19,25,582
18,25,583
18,26,584
19,26,585
19,27,586
18,27,587
17,27,588
17,26,589
16,26,590
16,27,591
16,28,592
17,28,593
17,29,594
16,29,595
16,30,596
16,31,597
17,31,598
17,30,599
18,30,600
18,31,601
19,31,602
19,30,603
19,29,604
18,29,605
18,28,606
19,28,607
20,28,608
21,28,609
21,29,610
20,29,611
20,30,612
20,31,613
21,31,614
21,30,615
22,30,616
22,31,617
23,31,618
23,30,619
23,29,620
22,29,621
22,28,622
23,28,623
23,27,624
23,26,625
22,26,626
22,27,627
21,27,628
20,27,629
20,26,630
21,26,631
21,25,632
20,25,633
20,24,634
21,24,635
22,24,636
22,25,637
23,25,638
23,24,639
24,24,640
24,25,641
25,25,642
25,24,643
26,24,644
27,24,645
27,25,646
26,25,647
26,26,648
27,26,649
27,27,650
26,27,651
25,27,652
25,26,653
24,26,654
24,27,655
24,28,656
25,28,657
25,29,658
24,29,659
24,30,660
24,31,661
25,31,662
25,30,663
26,30,664
26,31,665
27,31,666
27,30,667
27,29,668
26,29,669
26,28,670
27,28,671
28,28,672
29,28,673
29,29,674
28,29,675
28,30,676
28,31,677
29,31,678
29,30,679
30,30,680
30,31,681
31,31,682
31,30,683
31,29,684
30,29,685
30,28,686
31,28,687
31,27,688
31,26,689
30,26,690
30,27,691
29,27,692
28,27,693
28,26,694
29,26,695
29,25,696
28,25,697
28,24,698
29,24,699
30,24,700
30,25,701
31,25,702
31,24,703
31,23,704
30,23,705
30,22,706
31,22,707
31,21,708
31,20,709
30,20,710
30,21,711
29,21,712
29,20,713
28,20,714
28,21,715
28,22,716
29,22,717
29,23,718
28,23,719
27,23,720
27,22,721
26,22,722
26,23,723
25,23,724
24,23,725
24,22,726
25,22,727
25,21,728
24,21,729
24,20,730
25,20,731
26,20,732
26,21,733
27,21,734
27,20,735
27,19,736
27,18,737
26,18,738
26,19,739
25,19,740
24,19,741
24,18,742
25,18,743
25,17,744
24,17,745
24,16,746
25,16,747
26,16,748
26,17,749
27,17,750
27,16,751
28,16,752
29,16,753
29,17,754
28,17,755
28,18,756
28,19,757
29,19,758
29,18,759
30,18,760
30,19,761
31,19,762
31,18,763
31,17,764
30,17,765
30,16,766
31,16,767
31,15,768
31,14,769
30,14,770
30,15,771
29,15,772
28,15,773
28,14,774
29,14,775
29,13,776
28,13,777
28,12,778
29,12,779
30,12,780
30,13,781
31,13,782
31,12,783
31,11,784
30,11,785
30,10,786
31,10,787
31,9,788
31,8,789
30,8,790
30,9,791
29,9,792
29,8,793
28,8,794
28,9,795
28,10,796
29,10,797
29,11,798
28,11,799
27,11,800
26,11,801
26,10,802
27,10,803
27,9,804
27,8,805
26,8,806
26,9,807
25,9,808
25,8,809
24,8,810
24,9,811
24,10,812
25,10,813
25,11,814
24,11,815
24,12,816
24,13,817
25,13,818
25,12,819
26,12,820
27,12,821
27,13,822
26,13,823
26,14,824
27,14,825
27,15,826
26,15,827
25,15,828
25,14,829
24,14,830
24,15,831
23,15,832
22,15,833
22,14,834
23,14,835
23,13,836
23,12,837
22,12,838
22,13,839
21,13,840
21,12,841
20,12,842
20,13,843
20,14,844
21,14,845
21,15,846
20,15,847
19,15,848
19,14,849
18,14,850
18,15,851
17,15,852
16,15,853
16,14,854
17,14,855
17,13,856
16,13,857
16,12,858
17,12,859
18,12,860
18,13,861
19,13,862
19,12,863
19,11,864
19,10,865
18,10,866
18,11,867
17,11,868
16,11,869
16,10,870
17,10,871
17,9,872
16,9,873
16,8,874
17,8,875
18,8,876
18,9,877
19,9,878
19,8,879
20,8,880
21,8,881
21,9,882
20,9,883
20,10,884
20,11,885
21,11,886
21,10,887
22,10,888
22,11,889
23,11,890
23,10,891
23,9,892
22,9,893
22,8,894
23,8,895
23,7,896
22,7,897
22,6,898
23,6,899
23,5,900
23,4,901
22,4,902
22,5,903
21,5,904
21,4,905
20,4,906
20,5,907
20,6,908
21,6,909
21,7,910
20,7,911
19,7,912
19,6,913
18,6,914
18,7,915
17,7,916
16,7,917
16,6,918
17,6,919
17,5,920
16,5,921
16,4,922
17,4,923
18,4,924
18,5,925
19,5,926
19,4,927
19,3,928
19,2,929
18,2,930
18,3,931
17,3,932
16,3,933
16,2,934
17,2,935
17,1,936
16,1,937
16,0,938
17,0,939
18,0,940
18,1,941
19,1,942
19,0,943
20,0,944
21,0,945
21,1,946
20,1,947
20,2,948
20,3,949
21,3,950
21,2,951
22,2,952
22,3,953
23,3,954
23,2,955
23,1,956
22,1,957
22,0,958
23,0,959
24,0,960
24,1,961
25,1,962
25,0,963
26,0,964
27,0,965
27,1,966
26,1,967
26,2,968
27,2,969
27,3,970
26,3,971
25,3,972
25,2,973
24,2,974
24,3,975
24,4,976
25,4,977
25,5,978
24,5,979
24,6,980
24,7,981
25,7,982
25,6,983
26,6,984
26,7,985
27,7,986
27,6,987
27,5,988
26,5,989
26,4,990
27,4,991
28,4,992
29,4,993
29,5,994
28,5,995
28,6,996
28,7,997
29,7,998
29,6,999
30,6,1000
30,7,1001
31,7,1002
31,6,1003
31,5,1004
30,5,1005
30,4,1006
31,4,1007
31,3,1008
31,2,1009
30,2,1010
30,3,1011
29,3,1012
28,3,1013
28,2,1014
29,2,1015
29,1,1016
28,1,1017
28,0,1018
29,0,1019
30,0,1020
30,1,1021
31,1,1022
31,0,1023
